{
    "project_name": "project_name",
    "repo_name": "{{ cookiecutter.project_name.lower().replace(' ', '_') }}",
    "full_name": "Kai Huang",
    "email": "khuang5@mdanderson.org",
    "gitlab_username": "huangk",
    "url": "https://ro-gitlab.mdanderson.edu/{{ cookiecutter.gitlab_username }}/{{ cookiecutter.repo_name }}.git",
    "description": "A short description of the project.",
    "use_pytest": [
        "y",
        "n"
    ],
    "license": [
        "MIT license",
        "BSD license",
        "ISC license",
        "Apache Software License 2.0",
        "GNU General Public License v3",
        "Proprietary"
    ],
    "formatter": [
        "None",
        "black",
        "yapf"
    ],
    "command_line_interface": [
        "click",
        "argparse",
        "no command-line interface"
    ]
}